@unsetalias 'moved'
if x == 5294 and y == 855
  walk 'south'
  walk 'south'
  walk 'west'
  walk 'west'
endif
if x <= 5263 and x >= 5249
  if y <= 871 and y >= 857
    if not @findalias 'moved'
      @settimer 'moving' 0
      while x > 5257 and timer 'moving' < 2000
        run 'west'
        @getenemy 'grey' 'criminal' 'closest'
        attack 'enemy'
      endwhile
      while x > 5255 and timer 'moving' < 2000
        walk 'west'
        @getenemy 'grey'  'criminal'
        pause 100
        attack 'enemy'
      endwhile
      while x < 5253 and timer 'moving' < 2000
        run 'east'
        @getenemy 'grey' 'criminal' 'closest'
        attack 'enemy'
      endwhile
      while x < 5255 and timer 'moving' < 2000
        walk 'east'
        @getenemy 'grey'  'criminal'
        pause 100
        attack 'enemy'
      endwhile
      @settimer 'moving' 0
      while y < 874 and timer 'moving' < 2000
        run 'south'
        @getenemy 'grey' 'criminal' 'closest'
        attack 'enemy'
      endwhile
      while y < 876 and timer 'moving' < 2000
        walk 'south'
        @getenemy 'grey'  'criminal'
        pause 100
        attack 'enemy'
      endwhile
      while y > 878 and timer 'moving' < 2000
        run 'north'
        @getenemy 'grey' 'criminal' 'closest'
        attack 'enemy'
      endwhile
      while y > 876 and timer 'moving' < 2000
        walk 'north'
        @getenemy 'grey'  'criminal'
        pause 100
        attack 'enemy'
      endwhile
      @setalias 'moved' 'self'
    endif
  endif
endif
if x <= 5262 and x >= 5248
  if y <= 881 and y >= 867
    if not @findalias 'moved'
      @settimer 'moving' 0
      while y < 876 and timer 'moving' < 2000
        run 'south'
        @getenemy 'grey' 'criminal' 'closest'
        attack 'enemy'
      endwhile
      while y < 878 and timer 'moving' < 2000
        walk 'south'
        @getenemy 'grey'  'criminal'
        pause 100
        attack 'enemy'
      endwhile
      while y > 880 and timer 'moving' < 2000
        run 'north'
        @getenemy 'grey' 'criminal' 'closest'
        attack 'enemy'
      endwhile
      while y > 878 and timer 'moving' < 2000
        walk 'north'
        @getenemy 'grey'  'criminal'
        pause 100
        attack 'enemy'
      endwhile
      @settimer 'moving' 0
      while x > 5242 and timer 'moving' < 2000
        run 'west'
        @getenemy 'grey' 'criminal' 'closest'
        attack 'enemy'
      endwhile
      while x > 5240 and timer 'moving' < 2000
        walk 'west'
        @getenemy 'grey'  'criminal'
        pause 100
        attack 'enemy'
      endwhile
      while x < 5238 and timer 'moving' < 2000
        run 'east'
        @getenemy 'grey' 'criminal' 'closest'
        attack 'enemy'
      endwhile
      while x < 5240 and timer 'moving' < 2000
        walk 'east'
        @getenemy 'grey'  'criminal'
        pause 100
        attack 'enemy'
      endwhile
      @setalias 'moved' 'self'
    endif
  endif
endif
if x <= 5247 and x >= 5233
  if y <= 885 and y >= 871
    if not @findalias 'moved'
      @settimer 'moving' 0
      while x > 5242 and timer 'moving' < 2000
        run 'west'
        @getenemy 'grey' 'criminal' 'closest'
        attack 'enemy'
      endwhile
      while x > 5240 and timer 'moving' < 2000
        walk 'west'
        @getenemy 'grey'  'criminal'
        pause 100
        attack 'enemy'
      endwhile
      while x < 5238 and timer 'moving' < 2000
        run 'east'
        @getenemy 'grey' 'criminal' 'closest'
        attack 'enemy'
      endwhile
      while x < 5240 and timer 'moving' < 2000
        walk 'east'
        @getenemy 'grey'  'criminal'
        pause 100
        attack 'enemy'
      endwhile
      @settimer 'moving' 0
      while y < 861 and timer 'moving' < 2000
        run 'south'
        @getenemy 'grey' 'criminal' 'closest'
        attack 'enemy'
      endwhile
      while y < 863 and timer 'moving' < 2000
        walk 'south'
        @getenemy 'grey'  'criminal'
        pause 100
        attack 'enemy'
      endwhile
      while y > 865 and timer 'moving' < 2000
        run 'north'
        @getenemy 'grey' 'criminal' 'closest'
        attack 'enemy'
      endwhile
      while y > 863 and timer 'moving' < 2000
        walk 'north'
        @getenemy 'grey'  'criminal'
        pause 100
        attack 'enemy'
      endwhile
      @setalias 'moved' 'self'
    endif
  endif
endif
if x <= 5248 and x >= 5234
  if y <= 868 and y >= 854
    if not @findalias 'moved'
      @settimer 'moving' 0
      while x > 5245 and timer 'moving' < 2000
        run 'west'
        @getenemy 'grey' 'criminal' 'closest'
        attack 'enemy'
      endwhile
      while x > 5243 and timer 'moving' < 2000
        walk 'west'
        @getenemy 'grey'  'criminal'
        pause 100
        attack 'enemy'
      endwhile
      while x < 5241 and timer 'moving' < 2000
        run 'east'
        @getenemy 'grey' 'criminal' 'closest'
        attack 'enemy'
      endwhile
      while x < 5243 and timer 'moving' < 2000
        walk 'east'
        @getenemy 'grey'  'criminal'
        pause 100
        attack 'enemy'
      endwhile
      @settimer 'moving' 0
      while y < 849 and timer 'moving' < 2000
        run 'south'
        @getenemy 'grey' 'criminal' 'closest'
        attack 'enemy'
      endwhile
      while y < 851 and timer 'moving' < 2000
        walk 'south'
        @getenemy 'grey'  'criminal'
        pause 100
        attack 'enemy'
      endwhile
      while y > 853 and timer 'moving' < 2000
        run 'north'
        @getenemy 'grey' 'criminal' 'closest'
        attack 'enemy'
      endwhile
      while y > 851 and timer 'moving' < 2000
        walk 'north'
        @getenemy 'grey'  'criminal'
        pause 100
        attack 'enemy'
      endwhile
      @setalias 'moved' 'self'
    endif
  endif
endif
if x <= 5250 and x >= 5236
  if y <= 858 and y >= 844
    if not @findalias 'moved'
      @settimer 'moving' 0
      while x > 5237 and timer 'moving' < 2000
        run 'west'
        @getenemy 'grey' 'criminal' 'closest'
        attack 'enemy'
      endwhile
      while x > 5235 and timer 'moving' < 2000
        walk 'west'
        @getenemy 'grey'  'criminal'
        pause 100
        attack 'enemy'
      endwhile
      while x < 5233 and timer 'moving' < 2000
        run 'east'
        @getenemy 'grey' 'criminal' 'closest'
        attack 'enemy'
      endwhile
      while x < 5235 and timer 'moving' < 2000
        walk 'east'
        @getenemy 'grey'  'criminal'
        pause 100
        attack 'enemy'
      endwhile
      @settimer 'moving' 0
      while y < 845 and timer 'moving' < 2000
        run 'south'
        @getenemy 'grey' 'criminal' 'closest'
        attack 'enemy'
      endwhile
      while y < 847 and timer 'moving' < 2000
        walk 'south'
        @getenemy 'grey'  'criminal'
        pause 100
        attack 'enemy'
      endwhile
      while y > 849 and timer 'moving' < 2000
        run 'north'
        @getenemy 'grey' 'criminal' 'closest'
        attack 'enemy'
      endwhile
      while y > 847 and timer 'moving' < 2000
        walk 'north'
        @getenemy 'grey'  'criminal'
        pause 100
        attack 'enemy'
      endwhile
      @setalias 'moved' 'self'
    endif
  endif
endif
if x <= 5242 and x >= 5228
  if y <= 854 and y >= 840
    if not @findalias 'moved'
      @settimer 'moving' 0
      while y < 838 and timer 'moving' < 2000
        run 'south'
        @getenemy 'grey' 'criminal' 'closest'
        attack 'enemy'
      endwhile
      while y < 840 and timer 'moving' < 2000
        walk 'south'
        @getenemy 'grey'  'criminal'
        pause 100
        attack 'enemy'
      endwhile
      while y > 842 and timer 'moving' < 2000
        run 'north'
        @getenemy 'grey' 'criminal' 'closest'
        attack 'enemy'
      endwhile
      while y > 840 and timer 'moving' < 2000
        walk 'north'
        @getenemy 'grey'  'criminal'
        pause 100
        attack 'enemy'
      endwhile
      @settimer 'moving' 0
      while x > 5228 and timer 'moving' < 2000
        run 'west'
        @getenemy 'grey' 'criminal' 'closest'
        attack 'enemy'
      endwhile
      while x > 5226 and timer 'moving' < 2000
        walk 'west'
        @getenemy 'grey'  'criminal'
        pause 100
        attack 'enemy'
      endwhile
      while x < 5224 and timer 'moving' < 2000
        run 'east'
        @getenemy 'grey' 'criminal' 'closest'
        attack 'enemy'
      endwhile
      while x < 5226 and timer 'moving' < 2000
        walk 'east'
        @getenemy 'grey'  'criminal'
        pause 100
        attack 'enemy'
      endwhile
      @setalias 'moved' 'self'
    endif
  endif
endif
if x <= 5233 and x >= 5219
  if y <= 847 and y >= 833
    if not @findalias 'moved'
      @settimer 'moving' 0
      while x > 5227 and timer 'moving' < 2000
        run 'west'
        @getenemy 'grey' 'criminal' 'closest'
        attack 'enemy'
      endwhile
      while x > 5225 and timer 'moving' < 2000
        walk 'west'
        @getenemy 'grey'  'criminal'
        pause 100
        attack 'enemy'
      endwhile
      while x < 5223 and timer 'moving' < 2000
        run 'east'
        @getenemy 'grey' 'criminal' 'closest'
        attack 'enemy'
      endwhile
      while x < 5225 and timer 'moving' < 2000
        walk 'east'
        @getenemy 'grey'  'criminal'
        pause 100
        attack 'enemy'
      endwhile
      @settimer 'moving' 0
      while y < 820 and timer 'moving' < 2000
        run 'south'
        @getenemy 'grey' 'criminal' 'closest'
        attack 'enemy'
      endwhile
      while y < 822 and timer 'moving' < 2000
        walk 'south'
        @getenemy 'grey'  'criminal'
        pause 100
        attack 'enemy'
      endwhile
      while y > 824 and timer 'moving' < 2000
        run 'north'
        @getenemy 'grey' 'criminal' 'closest'
        attack 'enemy'
      endwhile
      while y > 822 and timer 'moving' < 2000
        walk 'north'
        @getenemy 'grey'  'criminal'
        pause 100
        attack 'enemy'
      endwhile
      @setalias 'moved' 'self'
    endif
  endif
endif
if x <= 5233 and x >= 5219
  if y <= 829 and y >= 815
    if not @findalias 'moved'
      @settimer 'moving' 0
      while x > 5235 and timer 'moving' < 2000
        run 'west'
        @getenemy 'grey' 'criminal' 'closest'
        attack 'enemy'
      endwhile
      while x > 5233 and timer 'moving' < 2000
        walk 'west'
        @getenemy 'grey'  'criminal'
        pause 100
        attack 'enemy'
      endwhile
      while x < 5231 and timer 'moving' < 2000
        run 'east'
        @getenemy 'grey' 'criminal' 'closest'
        attack 'enemy'
      endwhile
      while x < 5233 and timer 'moving' < 2000
        walk 'east'
        @getenemy 'grey'  'criminal'
        pause 100
        attack 'enemy'
      endwhile
      @settimer 'moving' 0
      while y < 810 and timer 'moving' < 2000
        run 'south'
        @getenemy 'grey' 'criminal' 'closest'
        attack 'enemy'
      endwhile
      while y < 812 and timer 'moving' < 2000
        walk 'south'
        @getenemy 'grey'  'criminal'
        pause 100
        attack 'enemy'
      endwhile
      while y > 814 and timer 'moving' < 2000
        run 'north'
        @getenemy 'grey' 'criminal' 'closest'
        attack 'enemy'
      endwhile
      while y > 812 and timer 'moving' < 2000
        walk 'north'
        @getenemy 'grey'  'criminal'
        pause 100
        attack 'enemy'
      endwhile
      @setalias 'moved' 'self'
    endif
  endif
endif
if x <= 5240 and x >= 5226
  if y <= 819 and y >= 805
    if not @findalias 'moved'
      @settimer 'moving' 0
      while x > 5229 and timer 'moving' < 2000
        run 'west'
        @getenemy 'grey' 'criminal' 'closest'
        attack 'enemy'
      endwhile
      while x > 5227 and timer 'moving' < 2000
        walk 'west'
        @getenemy 'grey'  'criminal'
        pause 100
        attack 'enemy'
      endwhile
      while x < 5225 and timer 'moving' < 2000
        run 'east'
        @getenemy 'grey' 'criminal' 'closest'
        attack 'enemy'
      endwhile
      while x < 5227 and timer 'moving' < 2000
        walk 'east'
        @getenemy 'grey'  'criminal'
        pause 100
        attack 'enemy'
      endwhile
      @settimer 'moving' 0
      while y < 802 and timer 'moving' < 2000
        run 'south'
        @getenemy 'grey' 'criminal' 'closest'
        attack 'enemy'
      endwhile
      while y < 804 and timer 'moving' < 2000
        walk 'south'
        @getenemy 'grey'  'criminal'
        pause 100
        attack 'enemy'
      endwhile
      while y > 806 and timer 'moving' < 2000
        run 'north'
        @getenemy 'grey' 'criminal' 'closest'
        attack 'enemy'
      endwhile
      while y > 804 and timer 'moving' < 2000
        walk 'north'
        @getenemy 'grey'  'criminal'
        pause 100
        attack 'enemy'
      endwhile
      @setalias 'moved' 'self'
    endif
  endif
endif
if x <= 5234 and x >= 5220
  if y <= 811 and y >= 797
    if not @findalias 'moved'
      @settimer 'moving' 0
      while x > 5230 and timer 'moving' < 2000
        run 'west'
        @getenemy 'grey' 'criminal' 'closest'
        attack 'enemy'
      endwhile
      while x > 5228 and timer 'moving' < 2000
        walk 'west'
        @getenemy 'grey'  'criminal'
        pause 100
        attack 'enemy'
      endwhile
      while x < 5226 and timer 'moving' < 2000
        run 'east'
        @getenemy 'grey' 'criminal' 'closest'
        attack 'enemy'
      endwhile
      while x < 5228 and timer 'moving' < 2000
        walk 'east'
        @getenemy 'grey'  'criminal'
        pause 100
        attack 'enemy'
      endwhile
      @settimer 'moving' 0
      while y < 790 and timer 'moving' < 2000
        run 'south'
        @getenemy 'grey' 'criminal' 'closest'
        attack 'enemy'
      endwhile
      while y < 792 and timer 'moving' < 2000
        walk 'south'
        @getenemy 'grey'  'criminal'
        pause 100
        attack 'enemy'
      endwhile
      while y > 794 and timer 'moving' < 2000
        run 'north'
        @getenemy 'grey' 'criminal' 'closest'
        attack 'enemy'
      endwhile
      while y > 792 and timer 'moving' < 2000
        walk 'north'
        @getenemy 'grey'  'criminal'
        pause 100
        attack 'enemy'
      endwhile
      @setalias 'moved' 'self'
    endif
  endif
endif
if x <= 5235 and x >= 5221
  if y <= 799 and y >= 785
    if not @findalias 'moved'
      @settimer 'moving' 0
      while y < 781 and timer 'moving' < 2000
        run 'south'
        @getenemy 'grey' 'criminal' 'closest'
        attack 'enemy'
      endwhile
      while y < 783 and timer 'moving' < 2000
        walk 'south'
        @getenemy 'grey'  'criminal'
        pause 100
        attack 'enemy'
      endwhile
      while y > 785 and timer 'moving' < 2000
        run 'north'
        @getenemy 'grey' 'criminal' 'closest'
        attack 'enemy'
      endwhile
      while y > 783 and timer 'moving' < 2000
        walk 'north'
        @getenemy 'grey'  'criminal'
        pause 100
        attack 'enemy'
      endwhile
      @settimer 'moving' 0
      while x > 5241 and timer 'moving' < 2000
        run 'west'
        @getenemy 'grey' 'criminal' 'closest'
        attack 'enemy'
      endwhile
      while x > 5239 and timer 'moving' < 2000
        walk 'west'
        @getenemy 'grey'  'criminal'
        pause 100
        attack 'enemy'
      endwhile
      while x < 5237 and timer 'moving' < 2000
        run 'east'
        @getenemy 'grey' 'criminal' 'closest'
        attack 'enemy'
      endwhile
      while x < 5239 and timer 'moving' < 2000
        walk 'east'
        @getenemy 'grey'  'criminal'
        pause 100
        attack 'enemy'
      endwhile
      @setalias 'moved' 'self'
    endif
  endif
endif
if x <= 5246 and x >= 5232
  if y <= 790 and y >= 776
    if not @findalias 'moved'
      @settimer 'moving' 0
      while y < 792 and timer 'moving' < 2000
        run 'south'
        @getenemy 'grey' 'criminal' 'closest'
        attack 'enemy'
      endwhile
      while y < 794 and timer 'moving' < 2000
        walk 'south'
        @getenemy 'grey'  'criminal'
        pause 100
        attack 'enemy'
      endwhile
      while y > 796 and timer 'moving' < 2000
        run 'north'
        @getenemy 'grey' 'criminal' 'closest'
        attack 'enemy'
      endwhile
      while y > 794 and timer 'moving' < 2000
        walk 'north'
        @getenemy 'grey'  'criminal'
        pause 100
        attack 'enemy'
      endwhile
      @settimer 'moving' 0
      while x > 5241 and timer 'moving' < 2000
        run 'west'
        @getenemy 'grey' 'criminal' 'closest'
        attack 'enemy'
      endwhile
      while x > 5239 and timer 'moving' < 2000
        walk 'west'
        @getenemy 'grey'  'criminal'
        pause 100
        attack 'enemy'
      endwhile
      while x < 5237 and timer 'moving' < 2000
        run 'east'
        @getenemy 'grey' 'criminal' 'closest'
        attack 'enemy'
      endwhile
      while x < 5239 and timer 'moving' < 2000
        walk 'east'
        @getenemy 'grey'  'criminal'
        pause 100
        attack 'enemy'
      endwhile
      @setalias 'moved' 'self'
    endif
  endif
endif
if x <= 5246 and x >= 5232
  if y <= 801 and y >= 787
    if not @findalias 'moved'
      @settimer 'moving' 0
      while x > 5251 and timer 'moving' < 2000
        run 'west'
        @getenemy 'grey' 'criminal' 'closest'
        attack 'enemy'
      endwhile
      while x > 5249 and timer 'moving' < 2000
        walk 'west'
        @getenemy 'grey'  'criminal'
        pause 100
        attack 'enemy'
      endwhile
      while x < 5247 and timer 'moving' < 2000
        run 'east'
        @getenemy 'grey' 'criminal' 'closest'
        attack 'enemy'
      endwhile
      while x < 5249 and timer 'moving' < 2000
        walk 'east'
        @getenemy 'grey'  'criminal'
        pause 100
        attack 'enemy'
      endwhile
      @settimer 'moving' 0
      while y < 792 and timer 'moving' < 2000
        run 'south'
        @getenemy 'grey' 'criminal' 'closest'
        attack 'enemy'
      endwhile
      while y < 794 and timer 'moving' < 2000
        walk 'south'
        @getenemy 'grey'  'criminal'
        pause 100
        attack 'enemy'
      endwhile
      while y > 796 and timer 'moving' < 2000
        run 'north'
        @getenemy 'grey' 'criminal' 'closest'
        attack 'enemy'
      endwhile
      while y > 794 and timer 'moving' < 2000
        walk 'north'
        @getenemy 'grey'  'criminal'
        pause 100
        attack 'enemy'
      endwhile
      @setalias 'moved' 'self'
    endif
  endif
endif
if x <= 5256 and x >= 5242
  if y <= 801 and y >= 787
    if not @findalias 'moved'
      @settimer 'moving' 0
      while y < 779 and timer 'moving' < 2000
        run 'south'
        @getenemy 'grey' 'criminal' 'closest'
        attack 'enemy'
      endwhile
      while y < 781 and timer 'moving' < 2000
        walk 'south'
        @getenemy 'grey'  'criminal'
        pause 100
        attack 'enemy'
      endwhile
      while y > 783 and timer 'moving' < 2000
        run 'north'
        @getenemy 'grey' 'criminal' 'closest'
        attack 'enemy'
      endwhile
      while y > 781 and timer 'moving' < 2000
        walk 'north'
        @getenemy 'grey'  'criminal'
        pause 100
        attack 'enemy'
      endwhile
      @settimer 'moving' 0
      while x > 5258 and timer 'moving' < 2000
        run 'west'
        @getenemy 'grey' 'criminal' 'closest'
        attack 'enemy'
      endwhile
      while x > 5256 and timer 'moving' < 2000
        walk 'west'
        @getenemy 'grey'  'criminal'
        pause 100
        attack 'enemy'
      endwhile
      while x < 5254 and timer 'moving' < 2000
        run 'east'
        @getenemy 'grey' 'criminal' 'closest'
        attack 'enemy'
      endwhile
      while x < 5256 and timer 'moving' < 2000
        walk 'east'
        @getenemy 'grey'  'criminal'
        pause 100
        attack 'enemy'
      endwhile
      @setalias 'moved' 'self'
    endif
  endif
endif
if x <= 5263 and x >= 5249
  if y <= 788 and y >= 774
    if not @findalias 'moved'
      @settimer 'moving' 0
      while x > 5268 and timer 'moving' < 2000
        run 'west'
        @getenemy 'grey' 'criminal' 'closest'
        attack 'enemy'
      endwhile
      while x > 5266 and timer 'moving' < 2000
        walk 'west'
        @getenemy 'grey'  'criminal'
        pause 100
        attack 'enemy'
      endwhile
      while x < 5264 and timer 'moving' < 2000
        run 'east'
        @getenemy 'grey' 'criminal' 'closest'
        attack 'enemy'
      endwhile
      while x < 5266 and timer 'moving' < 2000
        walk 'east'
        @getenemy 'grey'  'criminal'
        pause 100
        attack 'enemy'
      endwhile
      @settimer 'moving' 0
      while y < 784 and timer 'moving' < 2000
        run 'south'
        @getenemy 'grey' 'criminal' 'closest'
        attack 'enemy'
      endwhile
      while y < 786 and timer 'moving' < 2000
        walk 'south'
        @getenemy 'grey'  'criminal'
        pause 100
        attack 'enemy'
      endwhile
      while y > 788 and timer 'moving' < 2000
        run 'north'
        @getenemy 'grey' 'criminal' 'closest'
        attack 'enemy'
      endwhile
      while y > 786 and timer 'moving' < 2000
        walk 'north'
        @getenemy 'grey'  'criminal'
        pause 100
        attack 'enemy'
      endwhile
      @setalias 'moved' 'self'
    endif
  endif
endif
if x <= 5273 and x >= 5259
  if y <= 793 and y >= 779
    if not @findalias 'moved'
      @settimer 'moving' 0
      while y < 792 and timer 'moving' < 2000
        run 'south'
        @getenemy 'grey' 'criminal' 'closest'
        attack 'enemy'
      endwhile
      while y < 794 and timer 'moving' < 2000
        walk 'south'
        @getenemy 'grey'  'criminal'
        pause 100
        attack 'enemy'
      endwhile
      while y > 796 and timer 'moving' < 2000
        run 'north'
        @getenemy 'grey' 'criminal' 'closest'
        attack 'enemy'
      endwhile
      while y > 794 and timer 'moving' < 2000
        walk 'north'
        @getenemy 'grey'  'criminal'
        pause 100
        attack 'enemy'
      endwhile
      @settimer 'moving' 0
      while x > 5272 and timer 'moving' < 2000
        run 'west'
        @getenemy 'grey' 'criminal' 'closest'
        attack 'enemy'
      endwhile
      while x > 5270 and timer 'moving' < 2000
        walk 'west'
        @getenemy 'grey'  'criminal'
        pause 100
        attack 'enemy'
      endwhile
      while x < 5268 and timer 'moving' < 2000
        run 'east'
        @getenemy 'grey' 'criminal' 'closest'
        attack 'enemy'
      endwhile
      while x < 5270 and timer 'moving' < 2000
        walk 'east'
        @getenemy 'grey'  'criminal'
        pause 100
        attack 'enemy'
      endwhile
      @setalias 'moved' 'self'
    endif
  endif
endif
if x <= 5277 and x >= 5263
  if y <= 801 and y >= 787
    if not @findalias 'moved'
      @settimer 'moving' 0
      while y < 799 and timer 'moving' < 2000
        run 'south'
        @getenemy 'grey' 'criminal' 'closest'
        attack 'enemy'
      endwhile
      while y < 801 and timer 'moving' < 2000
        walk 'south'
        @getenemy 'grey'  'criminal'
        pause 100
        attack 'enemy'
      endwhile
      while y > 803 and timer 'moving' < 2000
        run 'north'
        @getenemy 'grey' 'criminal' 'closest'
        attack 'enemy'
      endwhile
      while y > 801 and timer 'moving' < 2000
        walk 'north'
        @getenemy 'grey'  'criminal'
        pause 100
        attack 'enemy'
      endwhile
      @settimer 'moving' 0
      while x > 5276 and timer 'moving' < 2000
        run 'west'
        @getenemy 'grey' 'criminal' 'closest'
        attack 'enemy'
      endwhile
      while x > 5274 and timer 'moving' < 2000
        walk 'west'
        @getenemy 'grey'  'criminal'
        pause 100
        attack 'enemy'
      endwhile
      while x < 5272 and timer 'moving' < 2000
        run 'east'
        @getenemy 'grey' 'criminal' 'closest'
        attack 'enemy'
      endwhile
      while x < 5274 and timer 'moving' < 2000
        walk 'east'
        @getenemy 'grey'  'criminal'
        pause 100
        attack 'enemy'
      endwhile
      @setalias 'moved' 'self'
    endif
  endif
endif
if x <= 5281 and x >= 5267
  if y <= 808 and y >= 794
    if not @findalias 'moved'
      @settimer 'moving' 0
      while x > 5288 and timer 'moving' < 2000
        run 'west'
        @getenemy 'grey' 'criminal' 'closest'
        attack 'enemy'
      endwhile
      while x > 5286 and timer 'moving' < 2000
        walk 'west'
        @getenemy 'grey'  'criminal'
        pause 100
        attack 'enemy'
      endwhile
      while x < 5284 and timer 'moving' < 2000
        run 'east'
        @getenemy 'grey' 'criminal' 'closest'
        attack 'enemy'
      endwhile
      while x < 5286 and timer 'moving' < 2000
        walk 'east'
        @getenemy 'grey'  'criminal'
        pause 100
        attack 'enemy'
      endwhile
      @settimer 'moving' 0
      while y < 799 and timer 'moving' < 2000
        run 'south'
        @getenemy 'grey' 'criminal' 'closest'
        attack 'enemy'
      endwhile
      while y < 801 and timer 'moving' < 2000
        walk 'south'
        @getenemy 'grey'  'criminal'
        pause 100
        attack 'enemy'
      endwhile
      while y > 803 and timer 'moving' < 2000
        run 'north'
        @getenemy 'grey' 'criminal' 'closest'
        attack 'enemy'
      endwhile
      while y > 801 and timer 'moving' < 2000
        walk 'north'
        @getenemy 'grey'  'criminal'
        pause 100
        attack 'enemy'
      endwhile
      @setalias 'moved' 'self'
    endif
  endif
endif
if x <= 5293 and x >= 5279
  if y <= 808 and y >= 794
    if not @findalias 'moved'
      @settimer 'moving' 0
      while x > 5289 and timer 'moving' < 2000
        run 'west'
        @getenemy 'grey' 'criminal' 'closest'
        attack 'enemy'
      endwhile
      while x > 5287 and timer 'moving' < 2000
        walk 'west'
        @getenemy 'grey'  'criminal'
        pause 100
        attack 'enemy'
      endwhile
      while x < 5285 and timer 'moving' < 2000
        run 'east'
        @getenemy 'grey' 'criminal' 'closest'
        attack 'enemy'
      endwhile
      while x < 5287 and timer 'moving' < 2000
        walk 'east'
        @getenemy 'grey'  'criminal'
        pause 100
        attack 'enemy'
      endwhile
      @settimer 'moving' 0
      while y < 810 and timer 'moving' < 2000
        run 'south'
        @getenemy 'grey' 'criminal' 'closest'
        attack 'enemy'
      endwhile
      while y < 812 and timer 'moving' < 2000
        walk 'south'
        @getenemy 'grey'  'criminal'
        pause 100
        attack 'enemy'
      endwhile
      while y > 814 and timer 'moving' < 2000
        run 'north'
        @getenemy 'grey' 'criminal' 'closest'
        attack 'enemy'
      endwhile
      while y > 812 and timer 'moving' < 2000
        walk 'north'
        @getenemy 'grey'  'criminal'
        pause 100
        attack 'enemy'
      endwhile
      @setalias 'moved' 'self'
    endif
  endif
endif
if x <= 5294 and x >= 5280
  if y <= 819 and y >= 805
    if not @findalias 'moved'
      @settimer 'moving' 0
      while y < 812 and timer 'moving' < 2000
        run 'south'
        @getenemy 'grey' 'criminal' 'closest'
        attack 'enemy'
      endwhile
      while y < 814 and timer 'moving' < 2000
        walk 'south'
        @getenemy 'grey'  'criminal'
        pause 100
        attack 'enemy'
      endwhile
      while y > 816 and timer 'moving' < 2000
        run 'north'
        @getenemy 'grey' 'criminal' 'closest'
        attack 'enemy'
      endwhile
      while y > 814 and timer 'moving' < 2000
        walk 'north'
        @getenemy 'grey'  'criminal'
        pause 100
        attack 'enemy'
      endwhile
      @settimer 'moving' 0
      while x > 5300 and timer 'moving' < 2000
        run 'west'
        @getenemy 'grey' 'criminal' 'closest'
        attack 'enemy'
      endwhile
      while x > 5298 and timer 'moving' < 2000
        walk 'west'
        @getenemy 'grey'  'criminal'
        pause 100
        attack 'enemy'
      endwhile
      while x < 5296 and timer 'moving' < 2000
        run 'east'
        @getenemy 'grey' 'criminal' 'closest'
        attack 'enemy'
      endwhile
      while x < 5298 and timer 'moving' < 2000
        walk 'east'
        @getenemy 'grey'  'criminal'
        pause 100
        attack 'enemy'
      endwhile
      @setalias 'moved' 'self'
    endif
  endif
endif
if x <= 5305 and x >= 5291
  if y <= 821 and y >= 807
    if not @findalias 'moved'
      @settimer 'moving' 0
      while x > 5308 and timer 'moving' < 2000
        run 'west'
        @getenemy 'grey' 'criminal' 'closest'
        attack 'enemy'
      endwhile
      while x > 5306 and timer 'moving' < 2000
        walk 'west'
        @getenemy 'grey'  'criminal'
        pause 100
        attack 'enemy'
      endwhile
      while x < 5304 and timer 'moving' < 2000
        run 'east'
        @getenemy 'grey' 'criminal' 'closest'
        attack 'enemy'
      endwhile
      while x < 5306 and timer 'moving' < 2000
        walk 'east'
        @getenemy 'grey'  'criminal'
        pause 100
        attack 'enemy'
      endwhile
      @settimer 'moving' 0
      while y < 819 and timer 'moving' < 2000
        run 'south'
        @getenemy 'grey' 'criminal' 'closest'
        attack 'enemy'
      endwhile
      while y < 821 and timer 'moving' < 2000
        walk 'south'
        @getenemy 'grey'  'criminal'
        pause 100
        attack 'enemy'
      endwhile
      while y > 823 and timer 'moving' < 2000
        run 'north'
        @getenemy 'grey' 'criminal' 'closest'
        attack 'enemy'
      endwhile
      while y > 821 and timer 'moving' < 2000
        walk 'north'
        @getenemy 'grey'  'criminal'
        pause 100
        attack 'enemy'
      endwhile
      @setalias 'moved' 'self'
    endif
  endif
endif
if x <= 5313 and x >= 5299
  if y <= 828 and y >= 814
    if not @findalias 'moved'
      @settimer 'moving' 0
      while x > 5308 and timer 'moving' < 2000
        run 'west'
        @getenemy 'grey' 'criminal' 'closest'
        attack 'enemy'
      endwhile
      while x > 5306 and timer 'moving' < 2000
        walk 'west'
        @getenemy 'grey'  'criminal'
        pause 100
        attack 'enemy'
      endwhile
      while x < 5304 and timer 'moving' < 2000
        run 'east'
        @getenemy 'grey' 'criminal' 'closest'
        attack 'enemy'
      endwhile
      while x < 5306 and timer 'moving' < 2000
        walk 'east'
        @getenemy 'grey'  'criminal'
        pause 100
        attack 'enemy'
      endwhile
      @settimer 'moving' 0
      while y < 830 and timer 'moving' < 2000
        run 'south'
        @getenemy 'grey' 'criminal' 'closest'
        attack 'enemy'
      endwhile
      while y < 832 and timer 'moving' < 2000
        walk 'south'
        @getenemy 'grey'  'criminal'
        pause 100
        attack 'enemy'
      endwhile
      while y > 834 and timer 'moving' < 2000
        run 'north'
        @getenemy 'grey' 'criminal' 'closest'
        attack 'enemy'
      endwhile
      while y > 832 and timer 'moving' < 2000
        walk 'north'
        @getenemy 'grey'  'criminal'
        pause 100
        attack 'enemy'
      endwhile
      @setalias 'moved' 'self'
    endif
  endif
endif
if x <= 5313 and x >= 5299
  if y <= 839 and y >= 825
    if not @findalias 'moved'
      @settimer 'moving' 0
      while x > 5310 and timer 'moving' < 2000
        run 'west'
        @getenemy 'grey' 'criminal' 'closest'
        attack 'enemy'
      endwhile
      while x > 5308 and timer 'moving' < 2000
        walk 'west'
        @getenemy 'grey'  'criminal'
        pause 100
        attack 'enemy'
      endwhile
      while x < 5306 and timer 'moving' < 2000
        run 'east'
        @getenemy 'grey' 'criminal' 'closest'
        attack 'enemy'
      endwhile
      while x < 5308 and timer 'moving' < 2000
        walk 'east'
        @getenemy 'grey'  'criminal'
        pause 100
        attack 'enemy'
      endwhile
      @settimer 'moving' 0
      while y < 845 and timer 'moving' < 2000
        run 'south'
        @getenemy 'grey' 'criminal' 'closest'
        attack 'enemy'
      endwhile
      while y < 847 and timer 'moving' < 2000
        walk 'south'
        @getenemy 'grey'  'criminal'
        pause 100
        attack 'enemy'
      endwhile
      while y > 849 and timer 'moving' < 2000
        run 'north'
        @getenemy 'grey' 'criminal' 'closest'
        attack 'enemy'
      endwhile
      while y > 847 and timer 'moving' < 2000
        walk 'north'
        @getenemy 'grey'  'criminal'
        pause 100
        attack 'enemy'
      endwhile
      @setalias 'moved' 'self'
    endif
  endif
endif
if x <= 5311 and x >= 5305
  if y <= 850 and y >= 844
    if not @findalias 'moved'
      @settimer 'moving' 0
      while y < 845 and timer 'moving' < 2000
        run 'south'
        @getenemy 'grey' 'criminal' 'closest'
        attack 'enemy'
      endwhile
      while y < 847 and timer 'moving' < 2000
        walk 'south'
        @getenemy 'grey'  'criminal'
        pause 100
        attack 'enemy'
      endwhile
      while y > 849 and timer 'moving' < 2000
        run 'north'
        @getenemy 'grey' 'criminal' 'closest'
        attack 'enemy'
      endwhile
      while y > 847 and timer 'moving' < 2000
        walk 'north'
        @getenemy 'grey'  'criminal'
        pause 100
        attack 'enemy'
      endwhile
      @settimer 'moving' 0
      while x > 5306 and timer 'moving' < 2000
        run 'west'
        @getenemy 'grey' 'criminal' 'closest'
        attack 'enemy'
      endwhile
      while x > 5304 and timer 'moving' < 2000
        walk 'west'
        @getenemy 'grey'  'criminal'
        pause 100
        attack 'enemy'
      endwhile
      while x < 5302 and timer 'moving' < 2000
        run 'east'
        @getenemy 'grey' 'criminal' 'closest'
        attack 'enemy'
      endwhile
      while x < 5304 and timer 'moving' < 2000
        walk 'east'
        @getenemy 'grey'  'criminal'
        pause 100
        attack 'enemy'
      endwhile
      @setalias 'moved' 'self'
    endif
  endif
endif
if x <= 5311 and x >= 5297
  if y <= 854 and y >= 840
    if not @findalias 'moved'
      @settimer 'moving' 0
      while y < 854 and timer 'moving' < 2000
        run 'south'
        @getenemy 'grey' 'criminal' 'closest'
        attack 'enemy'
      endwhile
      while y < 856 and timer 'moving' < 2000
        walk 'south'
        @getenemy 'grey'  'criminal'
        pause 100
        attack 'enemy'
      endwhile
      while y > 858 and timer 'moving' < 2000
        run 'north'
        @getenemy 'grey' 'criminal' 'closest'
        attack 'enemy'
      endwhile
      while y > 856 and timer 'moving' < 2000
        walk 'north'
        @getenemy 'grey'  'criminal'
        pause 100
        attack 'enemy'
      endwhile
      @settimer 'moving' 0
      while x > 5305 and timer 'moving' < 2000
        run 'west'
        @getenemy 'grey' 'criminal' 'closest'
        attack 'enemy'
      endwhile
      while x > 5303 and timer 'moving' < 2000
        walk 'west'
        @getenemy 'grey'  'criminal'
        pause 100
        attack 'enemy'
      endwhile
      while x < 5301 and timer 'moving' < 2000
        run 'east'
        @getenemy 'grey' 'criminal' 'closest'
        attack 'enemy'
      endwhile
      while x < 5303 and timer 'moving' < 2000
        walk 'east'
        @getenemy 'grey'  'criminal'
        pause 100
        attack 'enemy'
      endwhile
      @setalias 'moved' 'self'
    endif
  endif
endif
if x <= 5310 and x >= 5296
  if y <= 863 and y >= 849
    if not @findalias 'moved'
      @settimer 'moving' 0
      while y < 854 and timer 'moving' < 2000
        run 'south'
        @getenemy 'grey' 'criminal' 'closest'
        attack 'enemy'
      endwhile
      while y < 856 and timer 'moving' < 2000
        walk 'south'
        @getenemy 'grey'  'criminal'
        pause 100
        attack 'enemy'
      endwhile
      while y > 858 and timer 'moving' < 2000
        run 'north'
        @getenemy 'grey' 'criminal' 'closest'
        attack 'enemy'
      endwhile
      while y > 856 and timer 'moving' < 2000
        walk 'north'
        @getenemy 'grey'  'criminal'
        pause 100
        attack 'enemy'
      endwhile
      @settimer 'moving' 0
      while x > 5291 and timer 'moving' < 2000
        run 'west'
        @getenemy 'grey' 'criminal' 'closest'
        attack 'enemy'
      endwhile
      while x > 5289 and timer 'moving' < 2000
        walk 'west'
        @getenemy 'grey'  'criminal'
        pause 100
        attack 'enemy'
      endwhile
      while x < 5287 and timer 'moving' < 2000
        run 'east'
        @getenemy 'grey' 'criminal' 'closest'
        attack 'enemy'
      endwhile
      while x < 5289 and timer 'moving' < 2000
        walk 'east'
        @getenemy 'grey'  'criminal'
        pause 100
        attack 'enemy'
      endwhile
      @setalias 'moved' 'self'
    endif
  endif
endif
if x <= 5296 and x >= 5282
  if y <= 863 and y >= 849
    if not @findalias 'moved'
      @settimer 'moving' 0
      while y < 842 and timer 'moving' < 2000
        run 'south'
        @getenemy 'grey' 'criminal' 'closest'
        attack 'enemy'
      endwhile
      while y < 844 and timer 'moving' < 2000
        walk 'south'
        @getenemy 'grey'  'criminal'
        pause 100
        attack 'enemy'
      endwhile
      while y > 846 and timer 'moving' < 2000
        run 'north'
        @getenemy 'grey' 'criminal' 'closest'
        attack 'enemy'
      endwhile
      while y > 844 and timer 'moving' < 2000
        walk 'north'
        @getenemy 'grey'  'criminal'
        pause 100
        attack 'enemy'
      endwhile
      @settimer 'moving' 0
      while x > 5290 and timer 'moving' < 2000
        run 'west'
        @getenemy 'grey' 'criminal' 'closest'
        attack 'enemy'
      endwhile
      while x > 5288 and timer 'moving' < 2000
        walk 'west'
        @getenemy 'grey'  'criminal'
        pause 100
        attack 'enemy'
      endwhile
      while x < 5286 and timer 'moving' < 2000
        run 'east'
        @getenemy 'grey' 'criminal' 'closest'
        attack 'enemy'
      endwhile
      while x < 5288 and timer 'moving' < 2000
        walk 'east'
        @getenemy 'grey'  'criminal'
        pause 100
        attack 'enemy'
      endwhile
      @setalias 'moved' 'self'
    endif
  endif
endif
if x <= 5295 and x >= 5281
  if y <= 851 and y >= 837
    if not @findalias 'moved'
      @settimer 'moving' 0
      while x > 5290 and timer 'moving' < 2000
        run 'west'
        @getenemy 'grey' 'criminal' 'closest'
        attack 'enemy'
      endwhile
      while x > 5288 and timer 'moving' < 2000
        walk 'west'
        @getenemy 'grey'  'criminal'
        pause 100
        attack 'enemy'
      endwhile
      while x < 5286 and timer 'moving' < 2000
        run 'east'
        @getenemy 'grey' 'criminal' 'closest'
        attack 'enemy'
      endwhile
      while x < 5288 and timer 'moving' < 2000
        walk 'east'
        @getenemy 'grey'  'criminal'
        pause 100
        attack 'enemy'
      endwhile
      @settimer 'moving' 0
      while y < 834 and timer 'moving' < 2000
        run 'south'
        @getenemy 'grey' 'criminal' 'closest'
        attack 'enemy'
      endwhile
      while y < 836 and timer 'moving' < 2000
        walk 'south'
        @getenemy 'grey'  'criminal'
        pause 100
        attack 'enemy'
      endwhile
      while y > 838 and timer 'moving' < 2000
        run 'north'
        @getenemy 'grey' 'criminal' 'closest'
        attack 'enemy'
      endwhile
      while y > 836 and timer 'moving' < 2000
        walk 'north'
        @getenemy 'grey'  'criminal'
        pause 100
        attack 'enemy'
      endwhile
      @setalias 'moved' 'self'
    endif
  endif
endif
if x <= 5295 and x >= 5281
  if y <= 843 and y >= 829
    if not @findalias 'moved'
      @settimer 'moving' 0
      while x > 5283 and timer 'moving' < 2000
        run 'west'
        @getenemy 'grey' 'criminal' 'closest'
        attack 'enemy'
      endwhile
      while x > 5281 and timer 'moving' < 2000
        walk 'west'
        @getenemy 'grey'  'criminal'
        pause 100
        attack 'enemy'
      endwhile
      while x < 5279 and timer 'moving' < 2000
        run 'east'
        @getenemy 'grey' 'criminal' 'closest'
        attack 'enemy'
      endwhile
      while x < 5281 and timer 'moving' < 2000
        walk 'east'
        @getenemy 'grey'  'criminal'
        pause 100
        attack 'enemy'
      endwhile
      @settimer 'moving' 0
      while y < 827 and timer 'moving' < 2000
        run 'south'
        @getenemy 'grey' 'criminal' 'closest'
        attack 'enemy'
      endwhile
      while y < 829 and timer 'moving' < 2000
        walk 'south'
        @getenemy 'grey'  'criminal'
        pause 100
        attack 'enemy'
      endwhile
      while y > 831 and timer 'moving' < 2000
        run 'north'
        @getenemy 'grey' 'criminal' 'closest'
        attack 'enemy'
      endwhile
      while y > 829 and timer 'moving' < 2000
        walk 'north'
        @getenemy 'grey'  'criminal'
        pause 100
        attack 'enemy'
      endwhile
      @setalias 'moved' 'self'
    endif
  endif
endif
if x <= 5286 and x >= 5276
  if y <= 834 and y >= 824
    if not @findalias 'moved'
      @settimer 'moving' 0
      while y < 822 and timer 'moving' < 2000
        run 'south'
        @getenemy 'grey' 'criminal' 'closest'
        attack 'enemy'
      endwhile
      while y < 824 and timer 'moving' < 2000
        walk 'south'
        @getenemy 'grey'  'criminal'
        pause 100
        attack 'enemy'
      endwhile
      while y > 826 and timer 'moving' < 2000
        run 'north'
        @getenemy 'grey' 'criminal' 'closest'
        attack 'enemy'
      endwhile
      while y > 824 and timer 'moving' < 2000
        walk 'north'
        @getenemy 'grey'  'criminal'
        pause 100
        attack 'enemy'
      endwhile
      @settimer 'moving' 0
      while x > 5276 and timer 'moving' < 2000
        run 'west'
        @getenemy 'grey' 'criminal' 'closest'
        attack 'enemy'
      endwhile
      while x > 5274 and timer 'moving' < 2000
        walk 'west'
        @getenemy 'grey'  'criminal'
        pause 100
        attack 'enemy'
      endwhile
      while x < 5272 and timer 'moving' < 2000
        run 'east'
        @getenemy 'grey' 'criminal' 'closest'
        attack 'enemy'
      endwhile
      while x < 5274 and timer 'moving' < 2000
        walk 'east'
        @getenemy 'grey'  'criminal'
        pause 100
        attack 'enemy'
      endwhile
      @setalias 'moved' 'self'
    endif
  endif
endif
if x <= 5281 and x >= 5267
  if y <= 831 and y >= 817
    if not @findalias 'moved'
      @settimer 'moving' 0
      while y < 824 and timer 'moving' < 2000
        run 'south'
        @getenemy 'grey' 'criminal' 'closest'
        attack 'enemy'
      endwhile
      while y < 826 and timer 'moving' < 2000
        walk 'south'
        @getenemy 'grey'  'criminal'
        pause 100
        attack 'enemy'
      endwhile
      while y > 828 and timer 'moving' < 2000
        run 'north'
        @getenemy 'grey' 'criminal' 'closest'
        attack 'enemy'
      endwhile
      while y > 826 and timer 'moving' < 2000
        walk 'north'
        @getenemy 'grey'  'criminal'
        pause 100
        attack 'enemy'
      endwhile
      @settimer 'moving' 0
      while x > 5263 and timer 'moving' < 2000
        run 'west'
        @getenemy 'grey' 'criminal' 'closest'
        attack 'enemy'
      endwhile
      while x > 5261 and timer 'moving' < 2000
        walk 'west'
        @getenemy 'grey'  'criminal'
        pause 100
        attack 'enemy'
      endwhile
      while x < 5259 and timer 'moving' < 2000
        run 'east'
        @getenemy 'grey' 'criminal' 'closest'
        attack 'enemy'
      endwhile
      while x < 5261 and timer 'moving' < 2000
        walk 'east'
        @getenemy 'grey'  'criminal'
        pause 100
        attack 'enemy'
      endwhile
      @setalias 'moved' 'self'
    endif
  endif
endif
if x <= 5266 and x >= 5256
  if y <= 831 and y >= 821
    if not @findalias 'moved'
      @settimer 'moving' 0
      while x > 5256 and timer 'moving' < 2000
        run 'west'
        @getenemy 'grey' 'criminal' 'closest'
        attack 'enemy'
      endwhile
      while x > 5254 and timer 'moving' < 2000
        walk 'west'
        @getenemy 'grey'  'criminal'
        pause 100
        attack 'enemy'
      endwhile
      while x < 5252 and timer 'moving' < 2000
        run 'east'
        @getenemy 'grey' 'criminal' 'closest'
        attack 'enemy'
      endwhile
      while x < 5254 and timer 'moving' < 2000
        walk 'east'
        @getenemy 'grey'  'criminal'
        pause 100
        attack 'enemy'
      endwhile
      @settimer 'moving' 0
      while y < 814 and timer 'moving' < 2000
        run 'south'
        @getenemy 'grey' 'criminal' 'closest'
        attack 'enemy'
      endwhile
      while y < 816 and timer 'moving' < 2000
        walk 'south'
        @getenemy 'grey'  'criminal'
        pause 100
        attack 'enemy'
      endwhile
      while y > 818 and timer 'moving' < 2000
        run 'north'
        @getenemy 'grey' 'criminal' 'closest'
        attack 'enemy'
      endwhile
      while y > 816 and timer 'moving' < 2000
        walk 'north'
        @getenemy 'grey'  'criminal'
        pause 100
        attack 'enemy'
      endwhile
      @setalias 'moved' 'self'
    endif
  endif
endif
if x <= 5261 and x >= 5247
  if y <= 823 and y >= 809
    if not @findalias 'moved'
      @settimer 'moving' 0
      while y < 832 and timer 'moving' < 2000
        run 'south'
        @getenemy 'grey' 'criminal' 'closest'
        attack 'enemy'
      endwhile
      while y < 834 and timer 'moving' < 2000
        walk 'south'
        @getenemy 'grey'  'criminal'
        pause 100
        attack 'enemy'
      endwhile
      while y > 836 and timer 'moving' < 2000
        run 'north'
        @getenemy 'grey' 'criminal' 'closest'
        attack 'enemy'
      endwhile
      while y > 834 and timer 'moving' < 2000
        walk 'north'
        @getenemy 'grey'  'criminal'
        pause 100
        attack 'enemy'
      endwhile
      @settimer 'moving' 0
      while x > 5258 and timer 'moving' < 2000
        run 'west'
        @getenemy 'grey' 'criminal' 'closest'
        attack 'enemy'
      endwhile
      while x > 5256 and timer 'moving' < 2000
        walk 'west'
        @getenemy 'grey'  'criminal'
        pause 100
        attack 'enemy'
      endwhile
      while x < 5254 and timer 'moving' < 2000
        run 'east'
        @getenemy 'grey' 'criminal' 'closest'
        attack 'enemy'
      endwhile
      while x < 5256 and timer 'moving' < 2000
        walk 'east'
        @getenemy 'grey'  'criminal'
        pause 100
        attack 'enemy'
      endwhile
      @setalias 'moved' 'self'
    endif
  endif
endif
if x <= 5263 and x >= 5249
  if y <= 841 and y >= 827
    if not @findalias 'moved'
      @settimer 'moving' 0
      while x > 5258 and timer 'moving' < 2000
        run 'west'
        @getenemy 'grey' 'criminal' 'closest'
        attack 'enemy'
      endwhile
      while x > 5256 and timer 'moving' < 2000
        walk 'west'
        @getenemy 'grey'  'criminal'
        pause 100
        attack 'enemy'
      endwhile
      while x < 5254 and timer 'moving' < 2000
        run 'east'
        @getenemy 'grey' 'criminal' 'closest'
        attack 'enemy'
      endwhile
      while x < 5256 and timer 'moving' < 2000
        walk 'east'
        @getenemy 'grey'  'criminal'
        pause 100
        attack 'enemy'
      endwhile
      @settimer 'moving' 0
      while y < 842 and timer 'moving' < 2000
        run 'south'
        @getenemy 'grey' 'criminal' 'closest'
        attack 'enemy'
      endwhile
      while y < 844 and timer 'moving' < 2000
        walk 'south'
        @getenemy 'grey'  'criminal'
        pause 100
        attack 'enemy'
      endwhile
      while y > 846 and timer 'moving' < 2000
        run 'north'
        @getenemy 'grey' 'criminal' 'closest'
        attack 'enemy'
      endwhile
      while y > 844 and timer 'moving' < 2000
        walk 'north'
        @getenemy 'grey'  'criminal'
        pause 100
        attack 'enemy'
      endwhile
      @setalias 'moved' 'self'
    endif
  endif
endif
if x <= 5263 and x >= 5249
  if y <= 851 and y >= 837
    if not @findalias 'moved'
      @settimer 'moving' 0
      while x > 5258 and timer 'moving' < 2000
        run 'west'
        @getenemy 'grey' 'criminal' 'closest'
        attack 'enemy'
      endwhile
      while x > 5256 and timer 'moving' < 2000
        walk 'west'
        @getenemy 'grey'  'criminal'
        pause 100
        attack 'enemy'
      endwhile
      while x < 5254 and timer 'moving' < 2000
        run 'east'
        @getenemy 'grey' 'criminal' 'closest'
        attack 'enemy'
      endwhile
      while x < 5256 and timer 'moving' < 2000
        walk 'east'
        @getenemy 'grey'  'criminal'
        pause 100
        attack 'enemy'
      endwhile
      @settimer 'moving' 0
      while y < 850 and timer 'moving' < 2000
        run 'south'
        @getenemy 'grey' 'criminal' 'closest'
        attack 'enemy'
      endwhile
      while y < 852 and timer 'moving' < 2000
        walk 'south'
        @getenemy 'grey'  'criminal'
        pause 100
        attack 'enemy'
      endwhile
      while y > 854 and timer 'moving' < 2000
        run 'north'
        @getenemy 'grey' 'criminal' 'closest'
        attack 'enemy'
      endwhile
      while y > 852 and timer 'moving' < 2000
        walk 'north'
        @getenemy 'grey'  'criminal'
        pause 100
        attack 'enemy'
      endwhile
      @setalias 'moved' 'self'
    endif
  endif
endif
if x <= 5263 and x >= 5249
  if y <= 859 and y >= 845
    if not @findalias 'moved'
      @settimer 'moving' 0
      while x > 5258 and timer 'moving' < 2000
        run 'west'
        @getenemy 'grey' 'criminal' 'closest'
        attack 'enemy'
      endwhile
      while x > 5256 and timer 'moving' < 2000
        walk 'west'
        @getenemy 'grey'  'criminal'
        pause 100
        attack 'enemy'
      endwhile
      while x < 5254 and timer 'moving' < 2000
        run 'east'
        @getenemy 'grey' 'criminal' 'closest'
        attack 'enemy'
      endwhile
      while x < 5256 and timer 'moving' < 2000
        walk 'east'
        @getenemy 'grey'  'criminal'
        pause 100
        attack 'enemy'
      endwhile
      @settimer 'moving' 0
      while y < 862 and timer 'moving' < 2000
        run 'south'
        @getenemy 'grey' 'criminal' 'closest'
        attack 'enemy'
      endwhile
      while y < 864 and timer 'moving' < 2000
        walk 'south'
        @getenemy 'grey'  'criminal'
        pause 100
        attack 'enemy'
      endwhile
      while y > 866 and timer 'moving' < 2000
        run 'north'
        @getenemy 'grey' 'criminal' 'closest'
        attack 'enemy'
      endwhile
      while y > 864 and timer 'moving' < 2000
        walk 'north'
        @getenemy 'grey'  'criminal'
        pause 100
        attack 'enemy'
      endwhile
      @setalias 'moved' 'self'
    endif
  endif
endif
if x <= 5335 and x >= 5321
  if y <= 802 and y >= 788
    if not @findalias 'moved'
      @settimer 'moving' 0
      while y < 793 and timer 'moving' < 2000
        run 'south'
        @getenemy 'grey' 'criminal' 'closest'
        attack 'enemy'
      endwhile
      while y < 795 and timer 'moving' < 2000
        walk 'south'
        @getenemy 'grey'  'criminal'
        pause 100
        attack 'enemy'
      endwhile
      while y > 797 and timer 'moving' < 2000
        run 'north'
        @getenemy 'grey' 'criminal' 'closest'
        attack 'enemy'
      endwhile
      while y > 795 and timer 'moving' < 2000
        walk 'north'
        @getenemy 'grey'  'criminal'
        pause 100
        attack 'enemy'
      endwhile
      @settimer 'moving' 0
      while x > 5330 and timer 'moving' < 2000
        run 'west'
        @getenemy 'grey' 'criminal' 'closest'
        attack 'enemy'
      endwhile
      while x > 5328 and timer 'moving' < 2000
        walk 'west'
        @getenemy 'grey'  'criminal'
        pause 100
        attack 'enemy'
      endwhile
      while x < 5326 and timer 'moving' < 2000
        run 'east'
        @getenemy 'grey' 'criminal' 'closest'
        attack 'enemy'
      endwhile
      while x < 5328 and timer 'moving' < 2000
        walk 'east'
        @getenemy 'grey'  'criminal'
        pause 100
        attack 'enemy'
      endwhile
      @setalias 'moved' 'self'
    endif
  endif
endif
if x <= 5278 and x >= 5264
  if y <= 841 and y >= 827
    if not @findalias 'moved'
      @settimer 'moving' 0
      while x > 5279 and timer 'moving' < 2000
        run 'west'
        @getenemy 'grey' 'criminal' 'closest'
        attack 'enemy'
      endwhile
      while x > 5277 and timer 'moving' < 2000
        walk 'west'
        @getenemy 'grey'  'criminal'
        pause 100
        attack 'enemy'
      endwhile
      while x < 5275 and timer 'moving' < 2000
        run 'east'
        @getenemy 'grey' 'criminal' 'closest'
        attack 'enemy'
      endwhile
      while x < 5277 and timer 'moving' < 2000
        walk 'east'
        @getenemy 'grey'  'criminal'
        pause 100
        attack 'enemy'
      endwhile
      @settimer 'moving' 0
      while y < 821 and timer 'moving' < 2000
        run 'south'
        @getenemy 'grey' 'criminal' 'closest'
        attack 'enemy'
      endwhile
      while y < 823 and timer 'moving' < 2000
        walk 'south'
        @getenemy 'grey'  'criminal'
        pause 100
        attack 'enemy'
      endwhile
      while y > 825 and timer 'moving' < 2000
        run 'north'
        @getenemy 'grey' 'criminal' 'closest'
        attack 'enemy'
      endwhile
      while y > 823 and timer 'moving' < 2000
        walk 'north'
        @getenemy 'grey'  'criminal'
        pause 100
        attack 'enemy'
      endwhile
      @setalias 'moved' 'self'
    endif
  endif
endif
if x <= 5265 and x >= 5249
  if y <= 813 and y >= 797
    if not @findalias 'moved'
      @settimer 'moving' 0
      while x > 5257 and timer 'moving' < 2000
        run 'west'
        @getenemy 'grey' 'criminal' 'closest'
        attack 'enemy'
      endwhile
      while x > 5255 and timer 'moving' < 2000
        walk 'west'
        @getenemy 'grey'  'criminal'
        pause 100
        attack 'enemy'
      endwhile
      while x < 5253 and timer 'moving' < 2000
        run 'east'
        @getenemy 'grey' 'criminal' 'closest'
        attack 'enemy'
      endwhile
      while x < 5255 and timer 'moving' < 2000
        walk 'east'
        @getenemy 'grey'  'criminal'
        pause 100
        attack 'enemy'
      endwhile
      @settimer 'moving' 0
      while y < 812 and timer 'moving' < 2000
        run 'south'
        @getenemy 'grey' 'criminal' 'closest'
        attack 'enemy'
      endwhile
      while y < 814 and timer 'moving' < 2000
        walk 'south'
        @getenemy 'grey'  'criminal'
        pause 100
        attack 'enemy'
      endwhile
      while y > 816 and timer 'moving' < 2000
        run 'north'
        @getenemy 'grey' 'criminal' 'closest'
        attack 'enemy'
      endwhile
      while y > 814 and timer 'moving' < 2000
        walk 'north'
        @getenemy 'grey'  'criminal'
        pause 100
        attack 'enemy'
      endwhile
      @setalias 'moved' 'self'
    endif
  endif
endif
if x <= 5241 and x >= 5231
  if y <= 833 and y >= 823
    if not @findalias 'moved'
      @settimer 'moving' 0
      while y < 837 and timer 'moving' < 2000
        run 'south'
        @getenemy 'grey' 'criminal' 'closest'
        attack 'enemy'
      endwhile
      while y < 839 and timer 'moving' < 2000
        walk 'south'
        @getenemy 'grey'  'criminal'
        pause 100
        attack 'enemy'
      endwhile
      while y > 841 and timer 'moving' < 2000
        run 'north'
        @getenemy 'grey' 'criminal' 'closest'
        attack 'enemy'
      endwhile
      while y > 839 and timer 'moving' < 2000
        walk 'north'
        @getenemy 'grey'  'criminal'
        pause 100
        attack 'enemy'
      endwhile
      @settimer 'moving' 0
      while x > 5227 and timer 'moving' < 2000
        run 'west'
        @getenemy 'grey' 'criminal' 'closest'
        attack 'enemy'
      endwhile
      while x > 5225 and timer 'moving' < 2000
        walk 'west'
        @getenemy 'grey'  'criminal'
        pause 100
        attack 'enemy'
      endwhile
      while x < 5223 and timer 'moving' < 2000
        run 'east'
        @getenemy 'grey' 'criminal' 'closest'
        attack 'enemy'
      endwhile
      while x < 5225 and timer 'moving' < 2000
        walk 'east'
        @getenemy 'grey'  'criminal'
        pause 100
        attack 'enemy'
      endwhile
      @setalias 'moved' 'self'
    endif
  endif
endif
if x <= 5226 and x >= 5212
  if y <= 806 and y >= 792
    if not @findalias 'moved'
      @settimer 'moving' 0
      while y < 797 and timer 'moving' < 2000
        run 'south'
        @getenemy 'grey' 'criminal' 'closest'
        attack 'enemy'
      endwhile
      while y < 799 and timer 'moving' < 2000
        walk 'south'
        @getenemy 'grey'  'criminal'
        pause 100
        attack 'enemy'
      endwhile
      while y > 801 and timer 'moving' < 2000
        run 'north'
        @getenemy 'grey' 'criminal' 'closest'
        attack 'enemy'
      endwhile
      while y > 799 and timer 'moving' < 2000
        walk 'north'
        @getenemy 'grey'  'criminal'
        pause 100
        attack 'enemy'
      endwhile
      @settimer 'moving' 0
      while x > 5229 and timer 'moving' < 2000
        run 'west'
        @getenemy 'grey' 'criminal' 'closest'
        attack 'enemy'
      endwhile
      while x > 5227 and timer 'moving' < 2000
        walk 'west'
        @getenemy 'grey'  'criminal'
        pause 100
        attack 'enemy'
      endwhile
      while x < 5225 and timer 'moving' < 2000
        run 'east'
        @getenemy 'grey' 'criminal' 'closest'
        attack 'enemy'
      endwhile
      while x < 5227 and timer 'moving' < 2000
        walk 'east'
        @getenemy 'grey'  'criminal'
        pause 100
        attack 'enemy'
      endwhile
      @setalias 'moved' 'self'
    endif
  endif
endif
if x <= 5249 and x >= 5239
  if y <= 811 and y >= 801
    if not @findalias 'moved'
      @settimer 'moving' 0
      while y < 810 and timer 'moving' < 2000
        run 'south'
        @getenemy 'grey' 'criminal' 'closest'
        attack 'enemy'
      endwhile
      while y < 812 and timer 'moving' < 2000
        walk 'south'
        @getenemy 'grey'  'criminal'
        pause 100
        attack 'enemy'
      endwhile
      while y > 814 and timer 'moving' < 2000
        run 'north'
        @getenemy 'grey' 'criminal' 'closest'
        attack 'enemy'
      endwhile
      while y > 812 and timer 'moving' < 2000
        walk 'north'
        @getenemy 'grey'  'criminal'
        pause 100
        attack 'enemy'
      endwhile
      @settimer 'moving' 0
      while x > 5237 and timer 'moving' < 2000
        run 'west'
        @getenemy 'grey' 'criminal' 'closest'
        attack 'enemy'
      endwhile
      while x > 5235 and timer 'moving' < 2000
        walk 'west'
        @getenemy 'grey'  'criminal'
        pause 100
        attack 'enemy'
      endwhile
      while x < 5233 and timer 'moving' < 2000
        run 'east'
        @getenemy 'grey' 'criminal' 'closest'
        attack 'enemy'
      endwhile
      while x < 5235 and timer 'moving' < 2000
        walk 'east'
        @getenemy 'grey'  'criminal'
        pause 100
        attack 'enemy'
      endwhile
      @setalias 'moved' 'self'
    endif
  endif
endif
if x <= 5224 and x >= 5210
  if y <= 840 and y >= 826
    if not @findalias 'moved'
      @settimer 'moving' 0
      while x > 5227 and timer 'moving' < 2000
        run 'west'
        @getenemy 'grey' 'criminal' 'closest'
        attack 'enemy'
      endwhile
      while x > 5225 and timer 'moving' < 2000
        walk 'west'
        @getenemy 'grey'  'criminal'
        pause 100
        attack 'enemy'
      endwhile
      while x < 5223 and timer 'moving' < 2000
        run 'east'
        @getenemy 'grey' 'criminal' 'closest'
        attack 'enemy'
      endwhile
      while x < 5225 and timer 'moving' < 2000
        walk 'east'
        @getenemy 'grey'  'criminal'
        pause 100
        attack 'enemy'
      endwhile
      @settimer 'moving' 0
      while y < 837 and timer 'moving' < 2000
        run 'south'
        @getenemy 'grey' 'criminal' 'closest'
        attack 'enemy'
      endwhile
      while y < 839 and timer 'moving' < 2000
        walk 'south'
        @getenemy 'grey'  'criminal'
        pause 100
        attack 'enemy'
      endwhile
      while y > 841 and timer 'moving' < 2000
        run 'north'
        @getenemy 'grey' 'criminal' 'closest'
        attack 'enemy'
      endwhile
      while y > 839 and timer 'moving' < 2000
        walk 'north'
        @getenemy 'grey'  'criminal'
        pause 100
        attack 'enemy'
      endwhile
      @setalias 'moved' 'self'
    endif
  endif
endif
if x <= 5272 and x >= 5258
  if y <= 874 and y >= 860
    if not @findalias 'moved'
      @settimer 'moving' 0
      while x > 5262 and timer 'moving' < 2000
        run 'west'
        @getenemy 'grey' 'criminal' 'closest'
        attack 'enemy'
      endwhile
      while x > 5260 and timer 'moving' < 2000
        walk 'west'
        @getenemy 'grey'  'criminal'
        pause 100
        attack 'enemy'
      endwhile
      while x < 5258 and timer 'moving' < 2000
        run 'east'
        @getenemy 'grey' 'criminal' 'closest'
        attack 'enemy'
      endwhile
      while x < 5260 and timer 'moving' < 2000
        walk 'east'
        @getenemy 'grey'  'criminal'
        pause 100
        attack 'enemy'
      endwhile
      @settimer 'moving' 0
      while y < 851 and timer 'moving' < 2000
        run 'south'
        @getenemy 'grey' 'criminal' 'closest'
        attack 'enemy'
      endwhile
      while y < 853 and timer 'moving' < 2000
        walk 'south'
        @getenemy 'grey'  'criminal'
        pause 100
        attack 'enemy'
      endwhile
      while y > 855 and timer 'moving' < 2000
        run 'north'
        @getenemy 'grey' 'criminal' 'closest'
        attack 'enemy'
      endwhile
      while y > 853 and timer 'moving' < 2000
        walk 'north'
        @getenemy 'grey'  'criminal'
        pause 100
        attack 'enemy'
      endwhile
      @setalias 'moved' 'self'
    endif
  endif
endif
if x <= 5226 and x >= 5216
  if y <= 838 and y >= 828
    if not @findalias 'moved'
      @settimer 'moving' 0
      while y < 836 and timer 'moving' < 2000
        run 'south'
        @getenemy 'grey' 'criminal' 'closest'
        attack 'enemy'
      endwhile
      while y < 838 and timer 'moving' < 2000
        walk 'south'
        @getenemy 'grey'  'criminal'
        pause 100
        attack 'enemy'
      endwhile
      while y > 840 and timer 'moving' < 2000
        run 'north'
        @getenemy 'grey' 'criminal' 'closest'
        attack 'enemy'
      endwhile
      while y > 838 and timer 'moving' < 2000
        walk 'north'
        @getenemy 'grey'  'criminal'
        pause 100
        attack 'enemy'
      endwhile
      @settimer 'moving' 0
      while x > 5227 and timer 'moving' < 2000
        run 'west'
        @getenemy 'grey' 'criminal' 'closest'
        attack 'enemy'
      endwhile
      while x > 5225 and timer 'moving' < 2000
        walk 'west'
        @getenemy 'grey'  'criminal'
        pause 100
        attack 'enemy'
      endwhile
      while x < 5223 and timer 'moving' < 2000
        run 'east'
        @getenemy 'grey' 'criminal' 'closest'
        attack 'enemy'
      endwhile
      while x < 5225 and timer 'moving' < 2000
        walk 'east'
        @getenemy 'grey'  'criminal'
        pause 100
        attack 'enemy'
      endwhile
      @setalias 'moved' 'self'
    endif
  endif
endif
if x <= 5247 and x >= 5237
  if y <= 837 and y >= 827
    if not @findalias 'moved'
      @settimer 'moving' 0
      while y < 829 and timer 'moving' < 2000
        run 'south'
        @getenemy 'grey' 'criminal' 'closest'
        attack 'enemy'
      endwhile
      while y < 831 and timer 'moving' < 2000
        walk 'south'
        @getenemy 'grey'  'criminal'
        pause 100
        attack 'enemy'
      endwhile
      while y > 833 and timer 'moving' < 2000
        run 'north'
        @getenemy 'grey' 'criminal' 'closest'
        attack 'enemy'
      endwhile
      while y > 831 and timer 'moving' < 2000
        walk 'north'
        @getenemy 'grey'  'criminal'
        pause 100
        attack 'enemy'
      endwhile
      @settimer 'moving' 0
      while x > 5259 and timer 'moving' < 2000
        run 'west'
        @getenemy 'grey' 'criminal' 'closest'
        attack 'enemy'
      endwhile
      while x > 5257 and timer 'moving' < 2000
        walk 'west'
        @getenemy 'grey'  'criminal'
        pause 100
        attack 'enemy'
      endwhile
      while x < 5255 and timer 'moving' < 2000
        run 'east'
        @getenemy 'grey' 'criminal' 'closest'
        attack 'enemy'
      endwhile
      while x < 5257 and timer 'moving' < 2000
        walk 'east'
        @getenemy 'grey'  'criminal'
        pause 100
        attack 'enemy'
      endwhile
      @setalias 'moved' 'self'
    endif
  endif
endif
if not @findalias 'moved'
  sysmsg 'blackhole' 33
  for 3
    if x > 5259 and y > 837
      run northwest
    elseif x > 5259 and y < 837
      run southwest
    elseif x < 5259 and y > 837
      run northeast
    elseif x < 5259 and y < 837
      run southeast
    elseif x > 5259
      run west
    elseif x < 5259
      run east
    elseif y > 837
      run north
    else
      run south
    endif
  endfor
  pause 500
endif
@playmacro 'SpawnDestardKill'
